{
    // Use IntelliSense to learn about possible attributes.
    // Hover to view descriptions of existing attributes.
    // For more information, visit: https://go.microsoft.com/fwlink/?linkid=830387
    "version": "0.2.0",
    "configurations": [
            {
              "name": "XDebug Windows",
              "type": "php",
              "request": "launch",
              "port": 9000,
              "pathMappings": {
                "/opt/drupalmitma/web": "${workspaceFolder}/web"
              },
              "hostname": "localhost",
              "xdebugSettings": {
                "max_data": 65535,
                "show_hidden": 1,
                "max_children": 100,
                "max_depth": 5
              }
            },
            {
            "name": "XDebug Linux",
            "type": "php",
            "request": "launch",
            "port": 9000,
            "pathMappings": {
                "/opt/drupalmitma/web": "${workspaceRoot}/web"
            }//,
/*
            "xdebugSettings": {
                "max_children": 10000,
                "max_data": 10000,
                "show_hidden": 1
            } */
        }
    ]
}
